---
http_interactions:
- request:
    method: get
    uri: https://api.pexels.com/v1/search?per_page=3&query=denver,co
    body:
      encoding: US-ASCII
      string: ''
    headers:
      User-Agent:
      - Faraday v1.4.2
      Authorization:
      - "<pix_api_key>"
      Accept-Encoding:
      - gzip;q=1.0,deflate;q=0.6,identity;q=0.3
      Accept:
      - "*/*"
  response:
    status:
      code: 200
      message: OK
    headers:
      Date:
      - Wed, 16 Jun 2021 14:35:16 GMT
      Content-Type:
      - application/json; charset=utf-8
      Content-Length:
      - '738'
      Connection:
      - keep-alive
      Alt-Svc:
      - h3-27=":443"; ma=86400, h3-28=":443"; ma=86400, h3-29=":443"; ma=86400, h3=":443";
        ma=86400
      Cache-Control:
      - max-age=0, private, must-revalidate
      Cf-Cache-Status:
      - DYNAMIC
      Cf-Request-Id:
      - 0ab6d887130000ba3adaac8000000001
      Expect-Ct:
      - max-age=604800, report-uri="https://report-uri.cloudflare.com/cdn-cgi/beacon/expect-ct"
      Set-Cookie:
      - __cf_bm=1e84e74cb5ee6c99eedf96f9bfc52bdc3800f31b-1623852022-1800-AeBeWRqxsyBzTsbcrXaI42Qc8V3qt2w27E1D86dq91yE3lA0nMsB0i07KViwSL4BKKeoSubOqHp4+5tQl+xb3cE=;
        path=/; expires=Wed, 16-Jun-21 14:30:22 GMT; domain=.pexels.com; HttpOnly;
        Secure; SameSite=None
      - __cf_bm=358cb56bbf86aaecadc0b77b20cb97b7b2531dc9-1623854116-1800-Abxr41ihC/OMp/lUhIIcq5QNjRJg01KFrEj5xlRUnQ+xOYWQH88CNSW3x7noTlbxWx7aZKTl0iKaXo9v3QSXXHI=;
        path=/; expires=Wed, 16-Jun-21 15:05:16 GMT; domain=.pexels.com; HttpOnly;
        Secure; SameSite=None
      Vary:
      - Origin
      X-Frame-Options:
      - ALLOWALL
      X-Ratelimit-Limit:
      - '20000'
      X-Ratelimit-Remaining:
      - '19906'
      X-Ratelimit-Reset:
      - '1626126883'
      X-Request-Id:
      - 8a37936a-d623-46b8-bd50-cca176cb5878
      X-Runtime:
      - '0.120432'
      X-Server:
      - master
      X-Tyk-Cached-Response:
      - '1'
      Server:
      - cloudflare
      Cf-Ray:
      - 6604c384e97bba3a-ATL
    body:
      encoding: ASCII-8BIT
      string: '{"page":1,"per_page":3,"photos":[{"id":4167544,"width":3372,"height":5058,"url":"https://www.pexels.com/photo/hands-with-latex-gloves-holding-a-globe-with-a-face-mask-4167544/","photographer":"Anna
        Shvets","photographer_url":"https://www.pexels.com/@shvetsa","photographer_id":1984515,"avg_color":"#B5B7BD","src":{"original":"https://images.pexels.com/photos/4167544/pexels-photo-4167544.jpeg","large2x":"https://images.pexels.com/photos/4167544/pexels-photo-4167544.jpeg?auto=compress\u0026cs=tinysrgb\u0026dpr=2\u0026h=650\u0026w=940","large":"https://images.pexels.com/photos/4167544/pexels-photo-4167544.jpeg?auto=compress\u0026cs=tinysrgb\u0026h=650\u0026w=940","medium":"https://images.pexels.com/photos/4167544/pexels-photo-4167544.jpeg?auto=compress\u0026cs=tinysrgb\u0026h=350","small":"https://images.pexels.com/photos/4167544/pexels-photo-4167544.jpeg?auto=compress\u0026cs=tinysrgb\u0026h=130","portrait":"https://images.pexels.com/photos/4167544/pexels-photo-4167544.jpeg?auto=compress\u0026cs=tinysrgb\u0026fit=crop\u0026h=1200\u0026w=800","landscape":"https://images.pexels.com/photos/4167544/pexels-photo-4167544.jpeg?auto=compress\u0026cs=tinysrgb\u0026fit=crop\u0026h=627\u0026w=1200","tiny":"https://images.pexels.com/photos/4167544/pexels-photo-4167544.jpeg?auto=compress\u0026cs=tinysrgb\u0026dpr=1\u0026fit=crop\u0026h=200\u0026w=280"},"liked":false},{"id":3184423,"width":4004,"height":6000,"url":"https://www.pexels.com/photo/photo-of-people-holding-each-other-s-hands-3184423/","photographer":"fauxels","photographer_url":"https://www.pexels.com/@fauxels","photographer_id":1281351,"avg_color":"#8B7D77","src":{"original":"https://images.pexels.com/photos/3184423/pexels-photo-3184423.jpeg","large2x":"https://images.pexels.com/photos/3184423/pexels-photo-3184423.jpeg?auto=compress\u0026cs=tinysrgb\u0026dpr=2\u0026h=650\u0026w=940","large":"https://images.pexels.com/photos/3184423/pexels-photo-3184423.jpeg?auto=compress\u0026cs=tinysrgb\u0026h=650\u0026w=940","medium":"https://images.pexels.com/photos/3184423/pexels-photo-3184423.jpeg?auto=compress\u0026cs=tinysrgb\u0026h=350","small":"https://images.pexels.com/photos/3184423/pexels-photo-3184423.jpeg?auto=compress\u0026cs=tinysrgb\u0026h=130","portrait":"https://images.pexels.com/photos/3184423/pexels-photo-3184423.jpeg?auto=compress\u0026cs=tinysrgb\u0026fit=crop\u0026h=1200\u0026w=800","landscape":"https://images.pexels.com/photos/3184423/pexels-photo-3184423.jpeg?auto=compress\u0026cs=tinysrgb\u0026fit=crop\u0026h=627\u0026w=1200","tiny":"https://images.pexels.com/photos/3184423/pexels-photo-3184423.jpeg?auto=compress\u0026cs=tinysrgb\u0026dpr=1\u0026fit=crop\u0026h=200\u0026w=280"},"liked":false},{"id":3153198,"width":3781,"height":2521,"url":"https://www.pexels.com/photo/woman-sharing-her-presentation-with-her-colleagues-3153198/","photographer":"Canva
        Studio","photographer_url":"https://www.pexels.com/@canvastudio","photographer_id":1614591,"avg_color":"#A9A39B","src":{"original":"https://images.pexels.com/photos/3153198/pexels-photo-3153198.jpeg","large2x":"https://images.pexels.com/photos/3153198/pexels-photo-3153198.jpeg?auto=compress\u0026cs=tinysrgb\u0026dpr=2\u0026h=650\u0026w=940","large":"https://images.pexels.com/photos/3153198/pexels-photo-3153198.jpeg?auto=compress\u0026cs=tinysrgb\u0026h=650\u0026w=940","medium":"https://images.pexels.com/photos/3153198/pexels-photo-3153198.jpeg?auto=compress\u0026cs=tinysrgb\u0026h=350","small":"https://images.pexels.com/photos/3153198/pexels-photo-3153198.jpeg?auto=compress\u0026cs=tinysrgb\u0026h=130","portrait":"https://images.pexels.com/photos/3153198/pexels-photo-3153198.jpeg?auto=compress\u0026cs=tinysrgb\u0026fit=crop\u0026h=1200\u0026w=800","landscape":"https://images.pexels.com/photos/3153198/pexels-photo-3153198.jpeg?auto=compress\u0026cs=tinysrgb\u0026fit=crop\u0026h=627\u0026w=1200","tiny":"https://images.pexels.com/photos/3153198/pexels-photo-3153198.jpeg?auto=compress\u0026cs=tinysrgb\u0026dpr=1\u0026fit=crop\u0026h=200\u0026w=280"},"liked":false}],"total_results":2504,"next_page":"https://api.pexels.com/v1/search/?page=2\u0026per_page=3\u0026query=denver%2Cco"}'
  recorded_at: Wed, 16 Jun 2021 14:35:16 GMT
recorded_with: VCR 6.0.0
