---
http_interactions:
- request:
    method: get
    uri: https://api.pexels.com/v1/search?per_page=3&query=cityscape%20denver
    body:
      encoding: US-ASCII
      string: ''
    headers:
      User-Agent:
      - Faraday v1.4.2
      Authorization:
      - "<pix_api_key>"
      Accept-Encoding:
      - gzip;q=1.0,deflate;q=0.6,identity;q=0.3
      Accept:
      - "*/*"
  response:
    status:
      code: 200
      message: OK
    headers:
      Date:
      - Tue, 15 Jun 2021 15:09:22 GMT
      Content-Type:
      - application/json; charset=utf-8
      Content-Length:
      - '737'
      Connection:
      - keep-alive
      Alt-Svc:
      - h3-27=":443"; ma=86400, h3-28=":443"; ma=86400, h3-29=":443"; ma=86400, h3=":443";
        ma=86400
      Cache-Control:
      - max-age=0, private, must-revalidate
      Cf-Cache-Status:
      - DYNAMIC
      Cf-Request-Id:
      - 0ab1d161ca000007f6020a3000000001
      Expect-Ct:
      - max-age=604800, report-uri="https://report-uri.cloudflare.com/cdn-cgi/beacon/expect-ct"
      Set-Cookie:
      - __cf_bm=28bde5b79ce92381e818df984b8b73a196057822-1623769762-1800-AQPq8ey28v0aI6PvKJBNoC3kW4mh2hip23Rui9AStJigqrEIWIODM+XXnczGzCQgOpRzw51N2+B9EKIPUh0NhMs=;
        path=/; expires=Tue, 15-Jun-21 15:39:22 GMT; domain=.pexels.com; HttpOnly;
        Secure; SameSite=None
      - __cf_bm=7092c4d72fafc6fee9cc2407d5c5cd65f5ebb420-1623700166-1800-AZiGMDTbyieNmiLzWjBA4808NKqoI44Eaju0/gRgPswnYgTmL0GILMVz0+EEUSshKNJp9CI9XnQ3K8Nraon32fU=;
        path=/; expires=Mon, 14-Jun-21 20:19:26 GMT; domain=.pexels.com; HttpOnly;
        Secure; SameSite=None
      Vary:
      - Origin
      X-Frame-Options:
      - ALLOWALL
      X-Ratelimit-Limit:
      - '20000'
      X-Ratelimit-Remaining:
      - '19923'
      X-Ratelimit-Reset:
      - '1626126883'
      X-Request-Id:
      - a4c6a74e-13dd-4dd1-87e4-e0df0e9f59eb
      X-Runtime:
      - '0.115202'
      X-Server:
      - master
      X-Tyk-Cached-Response:
      - '1'
      Server:
      - cloudflare
      Cf-Ray:
      - 65fcb8160dea07f6-ATL
    body:
      encoding: ASCII-8BIT
      string: '{"page":1,"per_page":3,"photos":[{"id":325185,"width":5472,"height":3648,"url":"https://www.pexels.com/photo/view-of-cityscape-325185/","photographer":"Aleksandar
        Pasaric","photographer_url":"https://www.pexels.com/@apasaric","photographer_id":105079,"avg_color":"#CBD0D6","src":{"original":"https://images.pexels.com/photos/325185/pexels-photo-325185.jpeg","large2x":"https://images.pexels.com/photos/325185/pexels-photo-325185.jpeg?auto=compress\u0026cs=tinysrgb\u0026dpr=2\u0026h=650\u0026w=940","large":"https://images.pexels.com/photos/325185/pexels-photo-325185.jpeg?auto=compress\u0026cs=tinysrgb\u0026h=650\u0026w=940","medium":"https://images.pexels.com/photos/325185/pexels-photo-325185.jpeg?auto=compress\u0026cs=tinysrgb\u0026h=350","small":"https://images.pexels.com/photos/325185/pexels-photo-325185.jpeg?auto=compress\u0026cs=tinysrgb\u0026h=130","portrait":"https://images.pexels.com/photos/325185/pexels-photo-325185.jpeg?auto=compress\u0026cs=tinysrgb\u0026fit=crop\u0026h=1200\u0026w=800","landscape":"https://images.pexels.com/photos/325185/pexels-photo-325185.jpeg?auto=compress\u0026cs=tinysrgb\u0026fit=crop\u0026h=627\u0026w=1200","tiny":"https://images.pexels.com/photos/325185/pexels-photo-325185.jpeg?auto=compress\u0026cs=tinysrgb\u0026dpr=1\u0026fit=crop\u0026h=200\u0026w=280"},"liked":false},{"id":3835461,"width":5000,"height":4000,"url":"https://www.pexels.com/photo/luminous-ferris-wheel-in-modern-city-district-on-river-bank-at-night-3835461/","photographer":"Alex
        Chistol","photographer_url":"https://www.pexels.com/@alex-chistol-1715967","photographer_id":1715967,"avg_color":"#1E2832","src":{"original":"https://images.pexels.com/photos/3835461/pexels-photo-3835461.jpeg","large2x":"https://images.pexels.com/photos/3835461/pexels-photo-3835461.jpeg?auto=compress\u0026cs=tinysrgb\u0026dpr=2\u0026h=650\u0026w=940","large":"https://images.pexels.com/photos/3835461/pexels-photo-3835461.jpeg?auto=compress\u0026cs=tinysrgb\u0026h=650\u0026w=940","medium":"https://images.pexels.com/photos/3835461/pexels-photo-3835461.jpeg?auto=compress\u0026cs=tinysrgb\u0026h=350","small":"https://images.pexels.com/photos/3835461/pexels-photo-3835461.jpeg?auto=compress\u0026cs=tinysrgb\u0026h=130","portrait":"https://images.pexels.com/photos/3835461/pexels-photo-3835461.jpeg?auto=compress\u0026cs=tinysrgb\u0026fit=crop\u0026h=1200\u0026w=800","landscape":"https://images.pexels.com/photos/3835461/pexels-photo-3835461.jpeg?auto=compress\u0026cs=tinysrgb\u0026fit=crop\u0026h=627\u0026w=1200","tiny":"https://images.pexels.com/photos/3835461/pexels-photo-3835461.jpeg?auto=compress\u0026cs=tinysrgb\u0026dpr=1\u0026fit=crop\u0026h=200\u0026w=280"},"liked":false},{"id":3052361,"width":3843,"height":5790,"url":"https://www.pexels.com/photo/skyline-photography-of-buildings-3052361/","photographer":"Sanaan
        Mazhar","photographer_url":"https://www.pexels.com/@sanaan","photographer_id":1193942,"avg_color":"#141F21","src":{"original":"https://images.pexels.com/photos/3052361/pexels-photo-3052361.jpeg","large2x":"https://images.pexels.com/photos/3052361/pexels-photo-3052361.jpeg?auto=compress\u0026cs=tinysrgb\u0026dpr=2\u0026h=650\u0026w=940","large":"https://images.pexels.com/photos/3052361/pexels-photo-3052361.jpeg?auto=compress\u0026cs=tinysrgb\u0026h=650\u0026w=940","medium":"https://images.pexels.com/photos/3052361/pexels-photo-3052361.jpeg?auto=compress\u0026cs=tinysrgb\u0026h=350","small":"https://images.pexels.com/photos/3052361/pexels-photo-3052361.jpeg?auto=compress\u0026cs=tinysrgb\u0026h=130","portrait":"https://images.pexels.com/photos/3052361/pexels-photo-3052361.jpeg?auto=compress\u0026cs=tinysrgb\u0026fit=crop\u0026h=1200\u0026w=800","landscape":"https://images.pexels.com/photos/3052361/pexels-photo-3052361.jpeg?auto=compress\u0026cs=tinysrgb\u0026fit=crop\u0026h=627\u0026w=1200","tiny":"https://images.pexels.com/photos/3052361/pexels-photo-3052361.jpeg?auto=compress\u0026cs=tinysrgb\u0026dpr=1\u0026fit=crop\u0026h=200\u0026w=280"},"liked":false}],"total_results":8000,"next_page":"https://api.pexels.com/v1/search/?page=2\u0026per_page=3\u0026query=cityscape+denver"}'
  recorded_at: Tue, 15 Jun 2021 15:09:22 GMT
recorded_with: VCR 6.0.0
